setup_vision = yes
# No previous file for H11
government = monarchy
add_government_reform = autocracy_reform
government_rank = 1
primary_culture = tuathak
religion = autumn_court
technology_group = tech_eordand
capital = 1875

1000.1.1 = { set_estate_privilege = estate_mages_organization_guilds }

1441.3.5 = {
	monarch = {
		name = "Jexassa II"
		dynasty = "Copperheart"
		birth_date = 1403.7.2
		female = yes
		adm = 4
		dip = 2
		mil = 3
	}
	add_ruler_personality = industrious_personality
	heir = {
		name = "Galhan"
		monarch_name = "Galhan I"
		dynasty = "Copperheart"
		birth_date = 1422.2.11
		death_date = 1481.3.2
		claim = 95
		adm = 2
		dip = 5
		mil = 4
	}
	queen = {
		country_of_origin = H09
		name = "Adral"
		dynasty = "Lightkeeper"
		birth_date = 1402.11.20
		death_date = 1475.4.10
		adm = 1
		dip = 3
		mil = 5
	}
}
