#219 - Toledo |

owner = A13
controller = A13
add_core = A13
add_core = A23
culture = vertesker
religion = regent_court

hre = yes

base_tax = 4
base_production = 4
base_manpower = 4

trade_goods = livestock

capital = ""

is_city = yes









