#432 - Kerman

owner = A59
controller = A59
add_core = A59
culture = corvurian
religion = regent_court

hre = no

base_tax = 4
base_production = 4
base_manpower = 4

trade_goods = cloth

capital = ""

is_city = yes








