#508 - Landsend

owner = U12
controller = U12
add_core = U12
add_core = U16
culture = ourdi
religion = regent_court


base_tax = 1
base_production = 3
base_manpower = 2

trade_goods = fur
capital = ""









