#522 - Azka-szel-Aska

owner = U18
controller = U18
add_core = U18
culture = bahari
religion = bulwari_sun_cult

base_tax = 2
base_production = 2
base_manpower = 3

trade_goods = wine

capital = ""

is_city = yes
fort_15th = yes 










