#528 - Kaproya-Telen

owner = U14
controller = U14
add_core = U14
add_core = U19
culture = bahari
religion = bulwari_sun_cult


base_tax = 3
base_production = 3
base_manpower = 2

trade_goods = fish

capital = ""

is_city = yes












add_permanent_province_modifier = {
	name = elven_minority_oppressed_small
	duration = -1
}