# No previous file for Siak
owner = F25
controller = F25
add_core = F25
culture = zanite
religion = bulwari_sun_cult

hre = no

base_tax = 1
base_production = 1
base_manpower = 1

trade_goods = livestock

capital = ""

is_city = yes










