#650 - Gorihradin (mountaincastle)

owner = U13
controller = U13
add_core = U13
add_core = F22
culture = exodus_goblin
religion = goblinic_shamanism


base_tax = 3
base_production = 2
base_manpower = 1

trade_goods = iron

capital = ""

is_city = yes











add_permanent_province_modifier = {
	name = human_minority_coexisting_small
	duration = -1
}
