#654 - Ur-Monkande

owner = U13
controller = U13
add_core = U13
add_core = F22
culture = bahari
religion = bulwari_sun_cult

base_tax = 3
base_production = 3
base_manpower = 2

trade_goods = iron
center_of_trade = 1

capital = ""

is_city = yes











add_nationalism = 10


add_permanent_province_modifier = {
	name = elven_minority_integrated_small
	duration = -1
}