#658 - Garlas-kel

owner = F22
controller = F22
add_core = F22
culture = bahari
religion = old_bulwari_sun_cult

base_tax = 3
base_production = 3
base_manpower = 2

trade_goods = salt

capital = ""

is_city = yes









