#902 - Missouri

owner = A30
controller = A30
add_core = A30
add_core = A60
culture = arannese
religion = regent_court

hre = yes

base_tax = 3
base_production = 2
base_manpower = 2

trade_goods = grain

capital = ""

is_city = yes








