#917 - Cahokia

owner = A43
controller = A43
add_core = A43
culture = esmari
religion = regent_court

hre = yes

base_tax = 5
base_production = 5
base_manpower = 3

trade_goods = grain

capital = ""

is_city = yes








