edict_castanor_patrician_administration = {
	potential = {
		tag = B32
		has_country_flag = patrician_outpost_edict_unlocked
	}
	
	allow = {
		always = yes
	}
	
	modifier = {
		province_trade_power_modifier = 0.5
		castonath_patricians_influence_modifier = 0.02
		local_production_efficiency = 0.33
	}
	
	color = { 163 163 163 }
	
	
	ai_will_do = {
		factor = 200
	}
}
