country_decisions = {

	restore_corveld = { #Localization in flavorA59_Corvuria, but decision is not country dependent.
		major = yes
		potential = {
			adm_tech = 10
			owns = 447
			NOT = { has_country_modifier = monstrous_nation }
			NOT = { has_global_flag = corveld_restored }
			#NOT = { has_country_flag = restoring_corveld }
			#NOT = { has_dlc = [insert leviathan here when released] } #Done via Projects if DLC is had??
		}
		
		provinces_to_highlight = {
			province_id = 447
		}
		
		allow = {
			owns = 447
			adm_tech = 13
			adm_power = 150
			treasury = 1500
			447 = {
				development = 20
				is_core = ROOT
				has_owner_culture = yes
				controlled_by = ROOT
			}
		}
		
		effect = {
			add_adm_power = -150
			add_treasury = -1500
			447 = {
				add_base_tax = 4
				add_base_production = 3
				add_base_manpower = 3
				center_of_trade = 3
				add_permanent_province_modifier = { #In anb_misc_modifiers
					name = corveld_regional_capitol
					duration = -1
				}
			}
			if = {
				limit = { 
					owns = 451
					451 = { province_has_center_of_trade_of_level = 3 }
				}
				451 = { add_center_of_trade_level = -1 }
			}
			hidden_effect = { set_global_flag = corveld_restored }
			country_event = { id = corveld_city.1 }
			add_prestige = 25
		}
		
		ai_will_do = {
			factor = 400
		}
		ai_importance = 300
	}
}