country_decisions = {

	capital_census_decision = {
		major = yes
		potential = {
			tag = H67
			has_country_flag = rezankand_militarize_capital
			NOT = { has_country_flag = rezankand_militarize_census }
		}

		allow = {
			is_at_war = no
			mil_power = 75
			years_of_income = 0.5
			NOT = { has_country_modifier = militarizing_the_capital }
		}
		effect = {
			add_mil_power = -75
			add_years_of_income = -0.5
			capital_scope = { 
				add_province_modifier = {
					name = rezankand_militarize_census
					duration = -1
				} 
			}
			add_country_modifier = {
				name = militarizing_the_capital
				duration = 730
			}
			hidden_effect = { set_country_flag = rezankand_militarize_census }
		}
		ai_will_do = {
			factor = 400
		}
	}
	
	capital_fortified_wall_decision = {
		major = yes
		potential = {
			tag = H67
			has_country_flag = rezankand_militarize_capital
			NOT = { has_country_flag = rezankand_militarize_wall }
		}

		allow = {
			is_at_war = no
			mil_power = 75
			years_of_income = 0.5
			NOT = { has_country_modifier = militarizing_the_capital }
		}
		effect = {
			add_mil_power = -75
			add_years_of_income = -0.5
			capital_scope = { 
				add_province_modifier = {
					name = rezankand_militarize_wall
					duration = -1
				} 
			}
			add_country_modifier = {
				name = militarizing_the_capital
				duration = 730
			}
			hidden_effect = { set_country_flag = rezankand_militarize_wall }
		}
		ai_will_do = {
			factor = 400
		}
	}
	
	capital_officier_corp_decision = {
		major = yes
		potential = {
			tag = H67
			has_country_flag = rezankand_militarize_capital
			NOT = { has_country_flag = rezankand_officier_academy }
		}

		allow = {
			is_at_war = no
			mil_power = 75
			years_of_income = 0.5
			NOT = { has_country_modifier = militarizing_the_capital }
		}
		effect = {
			add_mil_power = -75
			add_years_of_income = -0.5
			capital_scope = { 
				add_province_modifier = {
					name = rezankand_officier_academy
					duration = -1
				} 
			}
			add_country_modifier = {
				name = militarizing_the_capital
				duration = 730
			}
			hidden_effect = { set_country_flag = rezankand_officier_academy }
		}
		ai_will_do = {
			factor = 400
		}
	}
	
	forge_dazinare_decision = {
		major = yes
		potential = {
			tag = H67
			has_country_flag = rezankand_can_forge_sword
			NOT = { has_country_flag = rezankand_sword_done }
		}

		allow = {
			is_at_war = no
			mil_power = 75
			dip_power = 75
			adm_power = 75
			years_of_income = 0.3
			NOT = { has_country_modifier = militarizing_the_capital }
		}
		effect = {
			add_mil_power = -75
			add_dip_power = -75
			add_adm_power = -75
			add_years_of_income = -0.3
			custom_tooltip = forge_dazinare_tooltip
			hidden_effect = { set_country_flag = rezankand_sword_done }
		}
		ai_will_do = {
			factor = 400
		}
	}
}
