namespace = eordand

country_event = { #ChangeGovernment
	id = eordand.1
	title = eordand.1.t
	desc = eordand.1.d
	picture = COURT_eventPicture
	
	is_triggered_only = yes
	
	option = {		# Despotic Monarchy
		name = "eordand.1.a"
		ai_chance = { 
			factor = 45
			modifier = {
				factor = 10
				tag = H13 
			}
			modifier = {
				factor = 2
				OR = {
					government = monarchy
				}
			}
			modifier = {
				factor = 0.01
				government = H07
			}
		}	
		if = {
			limit = { NOT = { government = monarchy } }
			change_government = monarchy
		}
		add_government_reform = autocracy_reform
		
	}
	option = {		# Oligarchic Republic
		name = "eordand.1.b"
		ai_chance = { 
			factor = 15
			modifier = {
				factor = 2	#Having a poor ruler makes it likely they want an elective country
				OR = {
					NOT = { adm = 3 }
					NOT = { dip = 3 }
					NOT = { mil = 3 }
				}
			}
		}
		if = {
			limit = { NOT = { government = republic } }
			change_government = republic
		}
		add_government_reform = oligarchy_reform
	}
	option = {		# Merchant Republic
		name = "eordand.1.c"
		ai_chance = { 
			factor = 10 
			modifier = {
				factor = 300
				OR = {
					tag = H07 
				}
			}
		}
		if = {
			limit = { NOT = { government = republic } }
			change_government = republic
		}
		add_government_reform = merchants_reform
	}
	
	option = {		# Magocracy
		name = "eordand.1.dd"
		ai_chance = { 
			factor = 50 
			modifier = {
				factor = 1000
				OR = {
					government = theocracy
				}
			}
		}
		if = {
			limit = { NOT = { government = theocracy } }
			change_government = theocracy
		}
		add_government_reform = magocracy_reform
	}
}

country_event = { #ChangeCapital
	id = eordand.2
	title = eordand.2.t
	desc = eordand.2.d
	picture = GOLDEN_CITY_eventPicture
	
	is_triggered_only = yes
	
	option = { #Spring
		name = "eordand.2.a"
		trigger = {
				owns_core_province = 2007
		}
		ai_chance = {
			factor = 20
			modifier = {
				factor = 300
				OR = {
					tag = H01
					primary_culture = selphereg
				}
			}
		}
		2007 = { #Arakeprun
			move_capital_effect = yes
		}
		add_country_modifier = {
			name = "eordand_spring_court"
			duration = -1
		}
	}
	option = { #Summer
			name = "eordand.2.b"
			trigger = {
				owns_core_province = 2037
			}
			ai_chance = {
			factor = 20
			modifier = {
				factor = 300
				OR = {
					tag = H02
					primary_culture = caamas
					}
				}
			}
			2037 = { #Murdkather
				move_capital_effect = yes
			}
			add_country_modifier = {
				name = "eordand_summer_court"
				duration = -1
			}
	}
	option = { #Autumn Court
		name = "eordand.2.c"
		trigger = {
				owns_core_province = 2159
		}
		ai_chance = {
			factor = 20
			modifier = {
				factor = 300
				OR = {
					tag = H10
					primary_culture = tuathak
				}
			}
		}
		2159 = { #Einnsag
			move_capital_effect = yes
		}
		add_country_modifier = {
			name = "eordand_autumn_court"
			duration = -1
		}
	}
	option = { #Winter Court
		name = "eordand.2.dd"
		trigger = {
				owns_core_province = 1775
		}
		ai_chance = {
			factor = 20
			modifier = {
				factor = 300
				OR = {
					tag = H16
					primary_culture = snecboth
				}
			}
		}
			1775 = { #Gemradcurt
				move_capital_effect = yes
			}
			add_country_modifier = {
				name = "eordand_winter_court"
				duration = -1
			}
	}
	option = { #Peitar
		name = "eordand.2.e"
		trigger = {
				owns_core_province = 2049
		}
		ai_chance = {
			factor = 20
			modifier = {
				factor = 300
				OR = {
					tag = H08
					primary_culture = peitar
				}
			}
		}
			2049 = { #Pelodard
				move_capital_effect = yes
			}
			add_country_modifier = {
				name = "eordand_domandrod"
				duration = -1
			}
	}
	option = { #NoChange
		name = "eordand.2.f"
		ai_chance = {
			factor = 0.1
		}
			add_adm_power = 50
			add_dip_power = 50
			add_mil_power = 50
	} 
}

country_event = { #Fey Audience Pelodard Dead
	id = eordand.3
	title = eordand.3.t
	desc = eordand.3.d
	picture = CONQUEST_eventPicture
	
	is_triggered_only = yes
	
	option = { #UniteTheSeasons
		name = "eordand.3.a"
		ai_chance = {
			factor = 1
			modifier = {
				factor = 100
				ruler_has_personality = conqueror_personality
				ruler_has_personality = inspiring_leader_personality
				ruler_has_personality = just_personality
				ruler_has_personality = free_thinker_personality
				ruler_has_personality = intricate_web_weaver_personality
				ruler_has_personality = lawgiver_personality
				ruler_has_personality = scholar_personality
				ruler_has_personality = tactical_genius_personality
				ruler_has_personality = navigator_personality
				ruler_has_personality = naive_enthusiast_personality
			}
		}
		add_country_modifier = { name = "eor_pledge_to_unite_eordand" duration = 18250 }
		add_prestige = 15
		H08 = {
			clr_country_flag = eordand_pelomar_oathsworn
		}
	}
		
	option = { #ChampionofFey
		name = "eordand.3.b"
		ai_chance = {
			factor = 1
			modifier = {
				factor = 100
				ruler_has_personality = zealot_personality
				ruler_has_personality = righteous_personality
				ruler_has_personality = secretive_personality
				ruler_has_personality = incorruptible_personality
				ruler_has_personality = architectural_visionary_personality
				ruler_has_personality = industrious_personality
				ruler_has_personality = charismatic_negotiator_personality
				ruler_has_personality = martial_educator_personality
				ruler_has_personality = fierce_negotiator_personality
				ruler_has_personality = obsessive_perfectionist_personality
			}
		}
		add_country_modifier = { name = "eor_champions_of_the_fey" duration = 18250 }
		add_prestige = 15
		H08 = {
			clr_country_flag = eordand_pelomar_oathsworn
		}
	}
	option = { #Beg
		name = "eordand.3.c"
		ai_chance = {
			factor = 1
			modifier = {
				factor = 100
				ruler_has_personality = craven_personality
				ruler_has_personality = careful_personality
				ruler_has_personality = pious_personality
				ruler_has_personality = well_advised_personality
				ruler_has_personality = benevolent_personality
				ruler_has_personality = calm_personality
				ruler_has_personality = tolerant_personality
				ruler_has_personality = midas_touched_personality
				ruler_has_personality = entrepreneur_personality
				ruler_has_personality = babbling_buffoon_personality
				ruler_has_personality = indulgent_personality
			}
		}
		add_country_modifier = { name = "eor_humble" duration = 18250 }
		add_prestige = -10
		increase_legitimacy_large_effect = yes
		H08 = {
			clr_country_flag = eordand_pelomar_oathsworn
		}
	}
	option = { #StandTall
		name = "eordand.3.dd"
		ai_chance = {
			factor = 1
			modifier = {
				factor = 100
				ruler_has_personality = sinner_personality
				ruler_has_personality = cruel_personality
				ruler_has_personality = strict_personality
				ruler_has_personality = bold_fighter_personality
				ruler_has_personality = well_connected_personality
				ruler_has_personality = expansionist_personality
				ruler_has_personality = silver_tongue_personality
				ruler_has_personality = embezzler_personality
				ruler_has_personality = fertile_personality
				ruler_has_personality = greedy_personality
				ruler_has_personality = loose_lips_personality
				ruler_has_personality = malevolent_personality
			}
		}
		add_country_modifier = { name = "eor_the_apostate" duration = 18250 }
		H08 = {
			clr_country_flag = eordand_pelomar_oathsworn
		}
	}
}

country_event = { #PrepareExpedition
	id = eordand.4
	title = eordand.4.t
	desc = eordand.4.d
	picture = EXPLORERS_eventPicture
	
	is_triggered_only = yes
	
	option = {
		name = "eordand.4.a"
		add_country_modifier = { name = "eor_expedition_underway" duration = 5475}
	}
}

country_event = { #RuinExcavationFograc RuinMemory
	id = eordand.5
	title = eordand.5.t
	desc = eordand.5.d
	picture = AZTEC_PYRAMID_eventPicture
	
	is_triggered_only = yes
	
	option = {
		name = "eordand.5.a"
		2060 = {
			add_permanent_province_modifier = { name = "eor_cadhcimn_1" duration = -1 }
			change_province_name = "Cadcimn"
			add_base_tax = 2
			add_base_production = 2
			add_base_manpower = 1
			change_trade_goods = precursor_relics
		}
	}
}

country_event = { #Unearthed
	id = eordand.6
	title = eordand.6.t
	desc = eordand.6.d
	picture = IMPORTANT_STATUE_eventPicture
	
	is_triggered_only = yes
	
	option = {
		name = "eordand.6.a"
		random_list = {
			66 = {
				add_adm_power = 50
				add_dip_power = 50
				add_mil_power = 50
				add_years_of_owned_provinces_production_income = { 
					years = 5 
				} 
				2060 = {  
					add_base_production = 2 
					add_permanent_province_modifier = { name = "eor_cadcimn_5" duration = -1 } 
				} 
			}
			22 = {
				2060 = {
					add_permanent_province_modifier = { name = "eor_cadhcimn_2" duration = -1 }
				}
				add_prestige = 15
			}
			11 = {
				country_event = {
					id = eordand.7
					days = 1
				}
			}
		}
		
	}
	option = {
		name = "eordand.6.b"
		random_list = {
			66 = {
				2060 = {
					add_permanent_province_modifier = { name = "eor_cadhcimn_2" duration = -1 }
				}
				add_prestige = 15
			}
			22 = {
				2060 = {
					add_permanent_province_modifier = { name = "eor_cadhcimn_4" duration = -1 }
				}
				increase_ruler_mil_effect = yes
			}
			11 = {
				country_event = {
					id = eordand.7
					days = 1
				}
			}
		}
	}
}

country_event = { #UnearthedMonster
	id = eordand.7
	title = eordand.7.t
	desc = eordand.7.d
	picture = KING_ASSASINATION_eventPicture
	
	is_triggered_only = yes
	
	option = {
		name = "eordand.7.a"
		random_list = {
			60 = {
				kill_ruler = yes
				reduce_stability_or_adm_power = yes
				2060 = {
					add_permanent_province_modifier = { name = "eor_cadcimn_3" duration = -1 }
				}
			}
			40 = {
				add_prestige = 10
				2060 = {
					add_permanent_province_modifier = { name = "eor_cadcimn_3" duration = -1 }
				}
				add_ruler_modifier = { name = "eor_monster_slayer" duration = -1 }
			}
		}
	}	
}

country_event = { #Damestear
	id = eordand.8
	title = eordand.8.t
	desc = eordand.8.d
	picture = COMET_SIGHTED_eventPicture
	
	is_triggered_only = yes
	
	option = {
		name = "eordand.8.a"
		2009 = {
			change_trade_goods = damestear
		}
		
	}
}

country_event = { #PelomarOath
	id = eordand.9
	title = eordand.9.t
	desc = eordand.9.d
	picture = COMET_SIGHTED_eventPicture
	
	is_triggered_only = no
	fire_only_once = yes
	
	trigger = {
		tag = H08
		AND = {
			is_year = 1444
			NOT = { is_year = 1445 }
		}
	}
	
	option = {
		name = "eordand.9.a"
		if = {
			limit = {
				has_country_flag = eordand_pelomar_oathsworn
			}
			add_country_modifier = { name = "eor_champions_of_the_fey" duration = 18250 }
		}
	}
}

country_event = { #ColltinPurchase
	id = eordand.10
	title = eordand.10.t
	desc = eordand.10.d
	picture = COMET_SIGHTED_eventPicture
	
	is_triggered_only = yes
	fire_only_once = yes
	
	option = { #OfferPurchase
		name = "eordand.10.a"
		H06 = {
			country_event = {
				id = eordand.11
				days = 15
			}
		}
	}
	option = { #Demand
		name = "eordand.10.b"
		H06 = {
			country_event = {
				id = eordand.12
				days = 15
			}
		}
	}
	option = { #GiveUpClaim
		name = "eordand.10.c"
		add_prestige = -5
		2039 = {
			remove_claim = ROOT 
		}
	}
}

country_event = { #ColltinSidparOffer
	id = eordand.11
	title = eordand.11.t
	desc = eordand.11.d
	picture = COMET_SIGHTED_eventPicture
	
	is_triggered_only = yes
	fire_only_once = yes
	
	option = { #Accept
		name = "eordand.11.a"
		ai_chance = { 
			factor = 75
			modifier = {
				factor = 10
				NOT = {
					years_of_income = 1
				}
			}
			modifier = {
				factor = 2
				OR = {
					marriage_with = H08
				}
			}
			modifier = {
				factor = 0.5
				army_strength = {
					who = H08
					value = 1.0
				}
			}
		}
		H08 = {
			country_event = {
				id = eordand.13
				days = 15
			}
		}
	}
	option = { #Refuse
		name = "eordand.11.b"
		ai_chance = {
			factor = 25
			modifier = {
				factor = 2
				army_strength = {
					who = H08
					value = 1.0
				}
			}
		}
		H08 = {
			country_event = {
				id = eordand.14
				days = 15
			}
		}
	}
}

country_event = { #ColltinSidparDemand
	id = eordand.12
	title = eordand.12.t
	desc = eordand.12.d
	picture = COMET_SIGHTED_eventPicture
	
	is_triggered_only = yes
	fire_only_once = yes
	
	option = { #AcceptDemand
		name = "eordand.12.a"
		ai_chance = {
			factor = 35
			modifier = {
				factor = 5
				NOT = {
					army_strength = {
						who = H08
						value = 1
					}
				}
			}
			modifier = {
				factor = 2
				NOT = {
					prestige = 35
				}
			}
			modifier = {
				factor = 3
				NOT = {
					prestige = H08
				}
			}
		}
		H08 = {
			country_event = {
				id = eordand.15
				days = 15
			}
		}
	}
	option = { #DenyDemand
		name = "eordand.12.b"
		ai_chance = {
			factor = 65
			modifier = {
				factor = 2
				army_strength = {
					who = H08
					value = 1.25
				}
			}
			modifier = {
				factor = 1.25
				prestige = 36
			}
		}
		H08 = {
			country_event = {
				id = eordand.16
				days = 15
			}
		}
	}
}

country_event = { #ColltinOfferAccepted
	id = eordand.13
	title = eordand.13.t
	desc = eordand.13.d
	picture = COMET_SIGHTED_eventPicture
	
	is_triggered_only = yes
	fire_only_once = yes
	
	option = {
		name = "eordand.13.a"
		2039 = {
			cede_province = H08
			add_core = H08
			remove_core = H06
		}
		dearktir_area = {
			add_permanent_claim = H06
		}
		H08 = {
			add_dip_power = -50
		}
	}
}

country_event = { #ColltinOfferRefused
	id = eordand.14
	title = eordand.14.t
	desc = eordand.14.d
	picture = COMET_SIGHTED_eventPicture
	
	is_triggered_only = yes
	fire_only_once = yes
	
	option = {
		name = "eordand.14.a"
		add_opinion = {
			who = H06
			modifier = eordand_colltin_offer_refused
		}
		reverse_add_opinion = {
			who = H06
			modifier = eordand_colltin_offer_refused
		}
	}
}

country_event = { #ColltinDemandAccepted
	id = eordand.15
	title = eordand.15.t
	desc = eordand.15.d
	picture = COMET_SIGHTED_eventPicture
	
	is_triggered_only = yes
	fire_only_once = yes
	
	option = {
		name = "eordand.15.a"
		2039 = {
			cede_province = H08
			add_core = H08
			remove_core = H06
		}
		reverse_add_opinion = {
			who = H06
			modifier = eordand_colltin_demand
		}
		add_trust = {
			who = H06
			value = -10
		}
	}
}

country_event = { #ColltinDemandRefused
	id = eordand.16
	title = eordand.16.t
	desc = eordand.16.d
	picture = COMET_SIGHTED_eventPicture
	
	is_triggered_only = yes
	fire_only_once = yes
	
	option = {
		name = "eordand.16.a"
		add_casus_belli = {
			target = H06
			type = cb_border_war
			months = 120
		}
		add_opinion = {
			who = H06
			modifier = eordand_colltin_demand
		}
		reverse_add_opinion = {
			who = H06
			modifier = eordand_colltin_demand
		}
		add_trust = {
			who = H06
			value = -10
			mutual = yes
		}
	}
}

country_event = { #Praisegranting
	id = eordand.17
	title = eordand.17.t
	desc = eordand.17.d
	picture = COMET_SIGHTED_eventPicture
	
	is_triggered_only = yes
	
	immediate = {
		hidden_effect = {
			random_known_country = {
				limit = {
					AND = {
						capital_scope = {
							continent = europe
						}
						num_of_light_ship = 3
					}
				}
				set_country_flag = tuathak_praisegranting
			}
		}
	}
	
	option = { #WelcomeCannoriansWarmly
		name = "eordand.17.a"
		
		random_known_country = {
			limit = {
				AND = {
					capital_scope = {
						continent = europe
					}
					num_of_light_ship = 3
					has_country_flag = tuathak_praisegranting
				}
			}
			add_opinion = {
				who = ROOT
				modifier = eordand_praisegranting_warm_welcome
			}
		}
		ROOT = {
			add_dip_power = 200		
		}
	}
	option = { #BarterWithCannorians
		name = "eordand.17.b"
		random_known_country = {
			limit = {
				AND = {
					capital_scope = {
						continent = europe
					}
					num_of_light_ship = 3
					has_country_flag = tuathak_praisegranting
				}
			}
			add_treasury = 100
		}
		ROOT = {
			add_treasury = -100
			add_country_modifier = { name = "tuathak_bartering_cannorian" duration = 7300 }
			capital_scope = {
					area = {
						add_next_institution_embracement = 25
					}
			}
		}
	}
	option = { #BetrayCannorians
		name = "eordand.17.c"
		
		random_known_country = {
			limit = {
				AND = {
					capital_scope = {
						continent = europe
					}
					num_of_light_ship = 3
					has_country_flag = tuathak_praisegranting
				}
			}
			country_event = { id = eordand.18 days = 1 }
		}
		random_owned_province = {
			limit = { has_port = yes }
			light_ship = ROOT
			light_ship = ROOT
			light_ship = ROOT
		}
		ROOT = {
			add_mil_power = 50
		}
	}
	option = { #Don't invite Cannorians
		name = "eordand.17.dd"
		
		random_known_country = {
			limit = {
				culture_group = eordellon_ruinborn_elf
			}
			add_opinion = {
				who = ROOT
				modifier = eordand_praisegranting_counsel
			}
		}
		random_known_country = {
			limit = {
				culture_group = eordellon_ruinborn_elf
			}
			add_opinion = {
				who = ROOT
				modifier = eordand_praisegranting_counsel
			}
		}
		random_known_country = {
			limit = {
				culture_group = eordellon_ruinborn_elf
			}
			add_opinion = {
				who = ROOT
				modifier = eordand_praisegranting_counsel
			}
		}
		add_country_modifier = { name = "tuathak_praisegranting_counsel" duration = 9125 }
		ROOT = {
			add_dip_power = 50
		}
	}
}
country_event = { #Praisegranting Cannorians attacked
	id = eordand.18
	title = eordand.18.t
	desc = eordand.18.d
	picture = COMET_SIGHTED_eventPicture
	
	is_triggered_only = yes
	
	option = {
		name = "eordand.18.a"
		
		add_opinion = {
			who = FROM
			modifier = eordand_praisegranting_betrayal
		}
		add_casus_belli = {
			target = FROM
			type = cb_insult
			months = 60
		}
		add_prestige = -5
		add_sailors = -200
	}
}
			