namespace = harpy_tolerance_events

# Event organizer for the harpy tolerance events - should be a huge improvement to performance - having 1 overall check for having the minority instead of one for EACH new event that gets added
country_event = {
	id = harpy_tolerance_events.0
	title = race_setup_events.1.d
	desc = race_setup_events.1.d
	picture = BORDER_TENSION_eventPicture

	hidden = yes
	is_triggered_only = yes

	trigger = {
		NOT = { culture_group = harpy }
		any_owned_province = {
			has_harpy_minority_trigger = yes
		}
	}

	option = {
		random_list = {
			# Famous harpy singer (advisor)
			1 = {
				modifier = {
					factor = 1.5
					medium_tolerance_harpy_race_trigger = yes
				}
				modifier = {
					factor = 2
					high_tolerance_harpy_race_trigger = yes
				}
				country_event = {
					id = harpy_tolerance_events.1
				}
			}
			# Harpy builders
			1 = {
				trigger = {
					any_owned_province = {
						has_harpy_minority_trigger = yes
						NOT = { has_province_modifier = harpy_builders }
					}
				}
				modifier = {
					factor = 0.8
					low_tolerance_harpy_race_trigger = yes
				}
				modifier = {
					factor = 1.5
					high_tolerance_harpy_race_trigger = yes
				}
				country_event = {
					id = harpy_tolerance_events.2
				}
			}
			# Mages killing harpies for ingredients
			1 = {
				trigger = {
					has_estate = estate_mages
				}
				modifier = {
					factor = 1.5
					low_tolerance_harpy_race_trigger = yes
				}
				modifier = {
					factor = 3
					has_estate_privilege = estate_mages_reduced_research_regulations
				}
				country_event = {
					id = harpy_tolerance_events.3
				}
			}
			# Harpies abduct well-known person
			1 = {
				trigger = {
					has_advisor = yes
				}
				country_event = {
					id = harpy_tolerance_events.4
				}
			}
			# Harpy romance
			1 = {
				modifier = {
					factor = 3
					high_tolerance_harpy_race_trigger = yes
				}
				modifier = {
					factor = 2
					medium_tolerance_harpy_race_trigger = yes
				}
				modifier = {
					factor = 3
					has_country_modifier = harpy_romance_encouraged_flag 
				}
				country_event = {
					id = harpy_tolerance_events.5
				}
			}
			# Harpy clans provide tribute
			1 = {
				modifier = {
					factor = 2
					high_tolerance_harpy_race_trigger = yes
				}
				modifier = {
					factor = 2
					low_tolerance_harpy_race_trigger = yes
				}
				country_event = {
					id = harpy_tolerance_events.6
				}
			}
			# Harpy village raid
			1 = {
				modifier = {
					factor = 2
					low_tolerance_harpy_race_trigger = yes
				}
				modifier = {
					factor = 2
					NOT = { stability = 0 }
				}
				modifier = {
					factor = 2
					has_large_harpy_minority_trigger = yes
				}
				country_event = {
					id = harpy_tolerance_events.7
				}
			}
			# Harpies killing travellers
			1 = {
				trigger = {
					any_owned_province = {
						has_harpy_minority_trigger = yes
						NOT = { has_province_modifier = harpy_killing_travellers }
					}
				}
				modifier = {
					factor = 2
					low_tolerance_harpy_race_trigger = yes
				}
				modifier = {
					factor = 2
					NOT = { stability = 0 }
				}
				country_event = {
					id = harpy_tolerance_events.8
				}
			}
		}
	}
}

# Harpy minister - famous harpy singer
country_event = {
	id = harpy_tolerance_events.1
	title = harpy_tolerance_events.1.t
	desc = harpy_tolerance_events.1.d
	picture = wihgfx_FEMALES_eventPicture
	
	is_triggered_only = yes

	# If you have a harpy culture province, that's the one the advisor comes from
	immediate = {
		hidden_effect = {
			if = {
				limit = {
					any_owned_province = {
						culture_group = harpy
					}
				}
				random_owned_province = {
					limit = { culture_group = harpy }
					save_event_target_as = harpy_advisor_culture_province
				}
				set_country_flag = harpy_advisor_culture_set
			}
		}
	}

	# Recruit the harpy
	option = {
		name = harpy_tolerance_events.1.a
		ai_chance = {
			factor = 50
			modifier = {
				factor = 0.5
				wants_to_maintain_tolerance_harpy = yes
			}
			modifier = {
				factor = 0.1
				wants_to_decrease_tolerance_harpy = yes
			}
		}
		small_increase_of_harpy_tolerance_effect = yes
		if = {
			limit = { has_country_flag = harpy_advisor_culture_set }
			if = {
				limit = { monthly_income = 50 }
				random_list = {
					1 = {
						define_advisor = {
							type = artist
							culture = event_target:harpy_advisor_culture_province
							religion = event_target:harpy_advisor_culture_province
							skill = 3
							female = yes
							discount = yes
						}
					}
					1 = {
						define_advisor = {
							type = spymaster
							culture = event_target:harpy_advisor_culture_province
							religion = event_target:harpy_advisor_culture_province
							skill = 3
							female = yes
							discount = yes
						}
					}
				}
			}
			else_if = {
				limit = { monthly_income = 25 }
				random_list = {
					1 = {
						define_advisor = {
							type = artist
							culture = event_target:harpy_advisor_culture_province
							religion = event_target:harpy_advisor_culture_province
							skill = 2
							female = yes
							discount = yes
						}
					}
					1 = {
						define_advisor = {
							type = spymaster
							culture = event_target:harpy_advisor_culture_province
							religion = event_target:harpy_advisor_culture_province
							skill = 2
							female = yes
							discount = yes
						}
					}
				}
			}
			else = {
				random_list = {
					1 = {
						define_advisor = {
							type = artist
							culture = event_target:harpy_advisor_culture_province
							religion = event_target:harpy_advisor_culture_province
							skill = 1
							female = yes
							discount = yes
						}
					}
					1 = {
						define_advisor = {
							type = spymaster
							culture = event_target:harpy_advisor_culture_province
							religion = event_target:harpy_advisor_culture_province
							skill = 1
							female = yes
							discount = yes
						}
					}
				}
			}
		}
		else_if = {
			limit = { 
				capital_scope = {
					OR = {
						superregion = south_haless_superregion
						superregion = yanshen_superregion
						region = shamakhad_region
						region = dhujat_region
						region = jade_mines_region
					}
				} 
			}
			if = {
				limit = { monthly_income = 50 }
				random_list = {
					1 = {
						define_advisor = {
							type = artist
							culture = feng_harpy
							skill = 3
							female = yes
							discount = yes
						}
					}
					1 = {
						define_advisor = {
							type = spymaster
							culture = feng_harpy
							skill = 3
							female = yes
							discount = yes
						}
					}
				}
			}
			else_if = {
				limit = { monthly_income = 25 }
				random_list = {
					1 = {
						define_advisor = {
							type = artist
							culture = feng_harpy
							skill = 2
							female = yes
							discount = yes
						}
					}
					1 = {
						define_advisor = {
							type = spymaster
							culture = feng_harpy
							skill = 2
							discount = yes
						}
					}
				}
			}
			else = {
				random_list = {
					1 = {
						define_advisor = {
							type = artist
							culture = feng_harpy
							skill = 1
							female = yes
							discount = yes
						}
					}
					1 = {
						define_advisor = {
							type = spymaster
							culture = feng_harpy
							skill = 1
							discount = yes
						}
					}
				}
			}
		}
		else_if = {
			limit = { 
				capital_scope = {
					region = rahen_coast_region
					region = rakhadesh_region
					region = tree_of_stone_region
					region = middle_dwarovar_region
					region = far_salahad_region
					region = far_bulwar_region
				} 
			}
			if = {
				limit = { monthly_income = 50 }
				random_list = {
					1 = {
						define_advisor = {
							type = artist
							culture = siadunan_harpy
							skill = 3
							female = yes
							discount = yes
						}
					}
					1 = {
						define_advisor = {
							type = spymaster
							culture = siadunan_harpy
							skill = 3
							female = yes
							discount = yes
						}
					}
				}
			}
			else_if = {
				limit = { monthly_income = 25 }
				random_list = {
					1 = {
						define_advisor = {
							type = artist
							culture = siadunan_harpy
							skill = 2
							female = yes
							discount = yes
						}
					}
					1 = {
						define_advisor = {
							type = spymaster
							culture = siadunan_harpy
							skill = 2
							female = yes
							discount = yes
						}
					}
				}
			}
			else = {
				random_list = {
					1 = {
						define_advisor = {
							type = artist
							culture = siadunan_harpy
							skill = 1
							female = yes
							discount = yes
						}
					}
					1 = {
						define_advisor = {
							type = spymaster
							culture = siadunan_harpy
							skill = 1
							female = yes
							discount = yes
						}
					}
				}
			}
		}
		else = {
			if = {
				limit = { monthly_income = 50 }
				random_list = {
					1 = {
						define_advisor = {
							type = artist
							culture = firanyan_harpy
							skill = 3
							female = yes
							discount = yes
						}
					}
					1 = {
						define_advisor = {
							type = spymaster
							culture = firanyan_harpy
							skill = 3
							female = yes
							discount = yes
						}
					}
				}
			}
			else_if = {
				limit = { monthly_income = 25 }
				random_list = {
					1 = {
						define_advisor = {
							type = artist
							culture = firanyan_harpy
							skill = 2
							female = yes
							discount = yes
						}
					}
					1 = {
						define_advisor = {
							type = spymaster
							culture = firanyan_harpy
							skill = 2
							female = yes
							discount = yes
						}
					}
				}
			}
			else = {
				random_list = {
					1 = {
						define_advisor = {
							type = artist
							culture = firanyan_harpy
							skill = 1
							female = yes
							discount = yes
						}
					}
					1 = {
						define_advisor = {
							type = spymaster
							culture = firanyan_harpy
							skill = 1
							female = yes
							discount = yes
						}
					}
				}
			}
		}
	}

	# A true exemplar of their race
	option = {
		name = harpy_tolerance_events.1.b
		ai_chance = {
			factor = 50
			modifier = {
				factor = 2
				wants_to_increase_tolerance_harpy = yes
			}
		}
		medium_increase_of_harpy_tolerance_effect = yes
	}

	# We dun give a shit
	option = {
		name = harpy_tolerance_events.1.c
		ai_chance = {
			factor = 50
			modifier = {
				factor = 2
				wants_to_decrease_tolerance_harpy = yes
			}
		}
		small_decrease_of_harpy_tolerance_effect = yes
	}

	after = {
		clr_country_flag = harpy_advisor_culture_set
	}
}

# Harpy builders
country_event = {
	id = harpy_tolerance_events.2
	title = harpy_tolerance_events.2.t
	desc = harpy_tolerance_events.2.d
	picture = INCA_CITY_eventPicture
	
	is_triggered_only = yes
	
	immediate = {
		hidden_effect = {
			random_owned_province = {
				limit = {
					NOT = { has_province_modifier = harpy_builders }
					has_harpy_minority_trigger = yes
				}
				save_event_target_as = harpy_builders_province
			}
		}
	}
	
	# We could use their natural abilities
	option = {	
		name = harpy_tolerance_events.2.a
		ai_chance = {
			factor = 50
			modifier = {
				factor = 0.5
				wants_to_maintain_tolerance_harpy = yes
			}
			modifier = {
				factor = 0.1
				wants_to_increase_tolerance_harpy = yes
			}
		}
		add_years_of_income = -0.3
		small_increase_of_harpy_tolerance_effect = yes
		event_target:harpy_builders_province = {
			area = {
				limit = {
					NOT = { has_province_modifier = harpy_builders }
				}
				add_province_modifier = {
					name = harpy_builders
					duration = 1825
				}
			}
		}
	}
	
	# Thanks but no thanks
	option = {
		name = harpy_tolerance_events.2.b
		small_decrease_of_harpy_tolerance_effect = yes
	}
	
	# We don't need you or your wings
	option = {
		name = harpy_tolerance_events.2.c
		ai_chance = {
			factor = 50
			modifier = {
				factor = 0.5
				wants_to_increase_tolerance_harpy = yes
			}
		}
		medium_decrease_of_harpy_tolerance_effect = yes
		add_prestige = 5
	}
}

# Mages killing harpies for ingredients
country_event = {
	id = harpy_tolerance_events.3
	title = harpy_tolerance_events.3.t
	desc = harpy_tolerance_events.3.d
	picture = SCOTTISH_MERCENARIES_eventPicture
	
	
	
	is_triggered_only = yes
		
	# Force the mages to pay reparations
	option = {	
		name = harpy_tolerance_events.3.a
		ai_chance = {
			factor = 50
			modifier = {
				factor = 0.1
				wants_to_increase_tolerance_harpy = yes
			}
		}
		reduce_estate_mages_loyalty_effect = yes
		medium_increase_of_harpy_tolerance_effect = yes
	}
	
	# Well, the mages should probably stop...
	option = {
		name = harpy_tolerance_events.3.b
		ai_chance = {
			factor = 50
		}
		small_increase_of_harpy_tolerance_effect = yes
	}
	
	# These ingredients are essential to our nation - its hunting season!
	option = {
		name = harpy_tolerance_events.3.c
		ai_chance = {
			factor = 50
			modifier = {
				factor = 0.5
				wants_to_increase_tolerance_harpy = yes
			}
		}
		largest_decrease_of_harpy_tolerance_effect = yes
		add_estate_mages_loyalty_effect = yes
		every_owned_province = {
			limit = { has_harpy_minority_trigger = yes }
			add_unrest = 5
		}
		every_owned_province = {
			limit = { has_harpy_majority_trigger = yes }
			add_unrest = 10
		}
		add_adm_power = 20
		add_dip_power = 20
		add_mil_power = 20
	}
}

# Harpies abduct well-known person
country_event = {
	id = harpy_tolerance_events.4
	title = harpy_tolerance_events.4.t
	desc = harpy_tolerance_events.4.d
	picture = PIRATES_CAPTURED_eventPicture

	is_triggered_only = yes
	
	immediate = {
		hidden_effect = {
			random_list = {
				1 = {
					trigger = {
						employed_advisor = {
							category = ADM
						}
					}
					set_country_flag = advisor_events_adm
				}
				1 = {
					trigger = {
						employed_advisor = {
							category = DIP
						}
					}
					set_country_flag = advisor_events_dip
				}
				1 = {
					trigger = {
						employed_advisor = {
							category = MIL
						}
					}
					set_country_flag = advisor_events_mil
				}
			}
		}
	}
	
	# Fuck em
	option = {
		name = harpy_tolerance_events.4.a
		ai_chance = {
			factor = 50
			modifier = {
				factor = 0.8
				wants_to_decrease_tolerance_harpy = yes
			}
		}
		small_increase_of_harpy_tolerance_effect = yes
		add_prestige = -10
		trigger_switch = {
			on_trigger = has_country_flag
			advisor_events_adm = {
				remove_advisor_by_category = ADM
			}
			advisor_events_dip = {
				remove_advisor_by_category = DIP
			}
			advisor_events_mil = {
				remove_advisor_by_category = MIL
			}
		}
	}
	# Send out a search party
	option = {
		name = harpy_tolerance_events.4.b
		ai_chance = {
			factor = 50
			modifier= {
				factor = 2
				wants_to_maintain_tolerance_harpy = yes
			}
		}
		add_mil_power = -25
	}
	# Interrogate local harpies
	option = {
		name = harpy_tolerance_events.4.c
		ai_chance = {
			factor = 50
			modifier = {
				factor = 0.1
				wants_to_increase_tolerance_harpy = yes
			}
		}
		small_decrease_of_harpy_tolerance_effect = yes
		random = {
			chance = 50
			trigger_switch = {
				on_trigger = has_country_flag
				advisor_events_adm = {
					remove_advisor_by_category = ADM
				}
				advisor_events_dip = {
					remove_advisor_by_category = DIP
				}
				advisor_events_mil = {
					remove_advisor_by_category = MIL
				}
			}
		}
	}
	# Cut a deal with them
	option = {
		name = harpy_tolerance_events.4.e
		trigger = {
			OR = {
				ruler_has_personality = charismatic_negotiator_personality
				ruler_has_personality = silver_tongue_personality
			}
		}
		highlight = yes
						ai_chance = {
			factor = 50
			modifier = {
				factor = 0.1
				wants_to_decrease_tolerance_harpy = yes
			}
			modifier = {
				factor = 0.1
				NOT = { years_of_income = 0.3 }
			}
			modifier = {
				factor = 0.8
				NOT = { years_of_income = 0.6 }
			}
		}
		small_increase_of_harpy_tolerance_effect = yes
		add_years_of_income = -0.3
	}
	after = {
		hidden_effect = {
			trigger_switch = {
				on_trigger = has_country_flag
				advisor_events_adm = { clr_country_flag = advisor_events_adm }
				advisor_events_dip = { clr_country_flag = advisor_events_dip }
				advisor_events_mil = { clr_country_flag = advisor_events_mil }
			}
		}
	}
}

# Harpy romance
country_event = {
	id = harpy_tolerance_events.5
	title = harpy_tolerance_events.5.t
	desc = harpy_tolerance_events.5.d
	picture = DIPLOMACY_eventPicture

	is_triggered_only = yes

	# Bully for them
	option = {
		name = harpy_tolerance_events.5.a
		ai_chance = {
			factor = 50
			modifier = {
				factor = 0.5
				wants_to_decrease_tolerance_harpy = yes
			}
		}
		add_prestige = -5
		medium_increase_of_harpy_tolerance_effect = yes
	}
	# Encourage the official to rethink their choices
	option = {
		name = harpy_tolerance_events.5.b
		ai_chance = {
			factor = 50
		}
		small_decrease_of_harpy_tolerance_effect = yes
	}
	# Kill the harpy and make an example of the official
	option = {
		name = harpy_tolerance_events.5.c
		ai_chance = {
			factor = 50
			modifier = {
				factor = 0.5
				wants_to_increase_tolerance_harpy = yes
			}
		}
		medium_decrease_of_harpy_tolerance_effect = yes
		every_owned_province = {
			limit = { has_any_harpy_pop_trigger = yes }
			add_unrest = 5
		}
	}
	# Encourage this type of behavior
	option = {
		name = harpy_tolerance_events.5.e
		trigger = {
			OR = {
				ruler_has_personality = tolerant_personality
				full_idea_group = humanist_ideas
			}
		}
		large_increase_of_harpy_tolerance_effect = yes
		add_prestige = -10
		add_country_modifier = {
			name = harpy_romance_encouraged_flag
			hidden = yes
			duration = 7300
		}
	}
}

# Harpy clans provide tribute
country_event = {
	id = harpy_tolerance_events.6
	title = harpy_tolerance_events.6.t
	desc = harpy_tolerance_events.6.d
	picture = TRADEGOODS_eventPicture

	is_triggered_only = yes
	
	# Send them a gift in return
	option = {
		name = harpy_tolerance_events.6.a
		ai_chance = {
			factor = 50
		}
		add_years_of_income = -0.3
		add_prestige = 5
		small_increase_of_harpy_tolerance_effect = yes
		
	}
	# Cool
	option = {
		name = harpy_tolerance_events.6.b
		ai_chance = {
			factor = 50
		}
		add_prestige = 10
		
	}
	# Bar them from moving
	option = {
		name = harpy_tolerance_events.6.c
		ai_chance = {
			factor = 50
		}
		small_decrease_of_harpy_tolerance_effect = yes
		add_prestige = 5
	}
}

# Harpy village raid
country_event = {
	id = harpy_tolerance_events.7
	title = harpy_tolerance_events.7.t
	desc = harpy_tolerance_events.7.d
	picture = VILLAGE_RAIDED_eventPicture
	GOTO = harpy_raid_province

	is_triggered_only = yes
	
	immediate = {
		hidden_effect = {
			random_owned_province = {
				limit = {
					has_harpy_minority_trigger = yes
				}
				save_event_target_as = harpy_raid_province
			}
			random_owned_province = {
				limit = {
					has_large_harpy_minority_trigger = yes
				}
				save_event_target_as = harpy_raid_province
			}
		}
	}
	
	# Retaliating will only anger them more
	option = {
		name = harpy_tolerance_events.7.a
		ai_chance = {
			factor = 50
			modifier = {
				factor = 0.5
				wants_to_decrease_tolerance_harpy = yes
			}
		}
		small_increase_of_harpy_tolerance_effect = yes
		event_target:harpy_raid_province = {
			add_devastation = 25
		}
	}
	# Focus on repairing the province
	option = {
		name = harpy_tolerance_events.7.b
		ai_chance = {
			factor = 50
			modifier = {
				factor = 0.5
				wants_to_decrease_tolerance_harpy = yes
			}
		}
		add_years_of_income = -0.25
	}
	# Send a force in retaliation
	option = {
		name = harpy_tolerance_events.7.c
		ai_chance = {
			factor = 50
			modifier = {
				factor = 0.5
				wants_to_increase_tolerance_harpy = yes
			}
		}
		add_mil_power = -40
		event_target:harpy_raid_province = {
			add_devastation = 25
		}
		largest_decrease_of_harpy_tolerance_effect = yes
	}
}

# Harpy killing travellers
#TODO: Troy's monster system
country_event = {
	id = harpy_tolerance_events.8
	title = harpy_tolerance_events.8.t
	desc = harpy_tolerance_events.8.d
	picture = WHITE_MOUNTAIN_eventPicture
	GOTO = harpy_killing_travellers_province

	is_triggered_only = yes
	
	immediate = {
		hidden_effect = {
			random_owned_province = {
				limit = {
					has_harpy_minority_trigger = yes
					NOT = { has_province_modifier = harpy_killing_travellers }	
				}
				save_event_target_as = harpy_killing_travellers_province
			}
		}
	}
	
	# Appease them to stop their attacks
	option = {
		name = harpy_tolerance_events.8.a
		ai_chance = {
			factor = 50
			modifier = {
				factor = 0.5
				NOT = { years_of_income = 0.4 }
			}
			modifier = {
				factor = 0.8
				NOT = { years_of_income = 0.8 }
			}
			modifier = {
				factor = 0.5
				wants_to_decrease_tolerance_harpy = yes
			}
		}
		add_years_of_income = -0.4
		small_increase_of_harpy_tolerance_effect = yes
		event_target:harpy_killing_travellers_province = {
			add_province_modifier = {
				name = harpy_killing_travellers
				duration = 365
			}
		}
	}
	# Some patrols will do the work
	option = {
		name = harpy_tolerance_events.8.b
		ai_chance = {
			factor = 50
			modifier = {
				factor = 0.8
				wants_to_increase_tolerance_harpy = yes
			}
		}
		add_mil_power = -25
		small_decrease_of_harpy_tolerance_effect = yes
		event_target:harpy_killing_travellers_province = {
			add_province_modifier = {
				name = harpy_killing_travellers
				duration = 1825
			}
		}
	}
	# Build watchtowers along the roads
	option = {
		name = harpy_tolerance_events.8.c
		ai_chance = {
			factor = 50
			modifier = {
				factor = 0.5
				wants_to_increase_tolerance_harpy = yes
			}
			modifier = {
				factor = 0.5
				NOT = { years_of_income = 0.4 }
			}
			modifier = {
				factor = 0.8
				NOT = { years_of_income = 0.8 }
			}
		}
		add_mil_power = -50
		add_years_of_income = -0.4
		medium_decrease_of_harpy_tolerance_effect = yes
		
	}
	# Wipe them all out and take their things
	option = {
		name = harpy_tolerance_events.8.e
		trigger = {
			OR = {
				ruler_has_personality = malevolent_personality
				ruler_has_personality = cruel_personality
			}
		}
		ai_chance = {
			factor = 50
			modifier = {
				factor = 0.1
				wants_to_increase_tolerance_harpy = yes
			}
			modifier = {
				factor = 0.5
				NOT = { years_of_income = 0.4 }
			}
			modifier = {
				factor = 0.8
				NOT = { years_of_income = 0.8 }
			}
			modifier = {
				factor = 0.5
				NOT = { manpower_percentage = 0.8 }
			}
		}
		highlight = yes
						add_mil_power = -50
		if = {
			limit = {
				max_manpower = 10
			}
			add_manpower = -1
		}
		else = {
			add_yearly_manpower = -1
		}
		add_years_of_income = 0.4
		largest_decrease_of_harpy_tolerance_effect = yes
		event_target:harpy_killing_travellers_province = {
			remove_harpy_minority_size_effect = yes
		}
	}
}